EESchema Schematic File Version 2
LIBS:power
LIBS:device
LIBS:transistors
LIBS:conn
LIBS:linear
LIBS:regul
LIBS:74xx
LIBS:cmos4000
LIBS:adc-dac
LIBS:memory
LIBS:xilinx
LIBS:microcontrollers
LIBS:dsp
LIBS:microchip
LIBS:analog_switches
LIBS:motorola
LIBS:texas
LIBS:intel
LIBS:audio
LIBS:interface
LIBS:digital-audio
LIBS:philips
LIBS:display
LIBS:cypress
LIBS:siliconi
LIBS:opto
LIBS:atmel
LIBS:contrib
LIBS:valves
LIBS:teensy
LIBS:NodeMCU1.0
LIBS:tjctm24028-spi
LIBS:TFTclock_UTFT-cache
EELAYER 25 0
EELAYER END
$Descr A4 11693 8268
encoding utf-8
Sheet 1 1
Title "TFT Clock"
Date "2016-09-26"
Rev "1.1"
Comp "Fredrik Andersson"
Comment1 ""
Comment2 ""
Comment3 ""
Comment4 ""
$EndDescr
$Comp
L NodeMCU1.0 MCU1
U 1 1 57E82410
P 3975 2475
F 0 "MCU1" H 3100 1350 60  0000 C CNN
F 1 "NodeMCU1.0" H 3275 3175 60  0000 C CNN
F 2 "NodeMCU1:NodeMCU1.0" H 2925 2525 60  0001 C CNN
F 3 "" H 2925 2525 60  0000 C CNN
	1    3975 2475
	1    0    0    -1  
$EndComp
$Comp
L +3V3 #PWR01
U 1 1 57E8244F
P 1100 1000
F 0 "#PWR01" H 1100 850 50  0001 C CNN
F 1 "+3V3" H 1100 1140 50  0000 C CNN
F 2 "" H 1100 1000 50  0000 C CNN
F 3 "" H 1100 1000 50  0000 C CNN
	1    1100 1000
	1    0    0    -1  
$EndComp
$Comp
L GND #PWR02
U 1 1 57E82467
P 1800 3500
F 0 "#PWR02" H 1800 3250 50  0001 C CNN
F 1 "GND" H 1800 3350 50  0000 C CNN
F 2 "" H 1800 3500 50  0000 C CNN
F 3 "" H 1800 3500 50  0000 C CNN
	1    1800 3500
	1    0    0    -1  
$EndComp
$Comp
L GND #PWR03
U 1 1 57E825A4
P 5625 3675
F 0 "#PWR03" H 5625 3425 50  0001 C CNN
F 1 "GND" H 5625 3525 50  0000 C CNN
F 2 "" H 5625 3675 50  0000 C CNN
F 3 "" H 5625 3675 50  0000 C CNN
	1    5625 3675
	1    0    0    -1  
$EndComp
$Comp
L +3V3 #PWR04
U 1 1 57E825B5
P 5425 3675
F 0 "#PWR04" H 5425 3525 50  0001 C CNN
F 1 "+3V3" H 5425 3815 50  0000 C CNN
F 2 "" H 5425 3675 50  0000 C CNN
F 3 "" H 5425 3675 50  0000 C CNN
	1    5425 3675
	-1   0    0    1   
$EndComp
$Comp
L TJCTM24028-SPI TFT1
U 1 1 57E82AE2
P 9475 4750
F 0 "TFT1" H 8750 3925 60  0000 C CNN
F 1 "TJCTM24028-SPI" H 9475 4750 60  0000 C CNN
F 2 "TJCTM24028-SPI:TJCTM24028-SPI" H 9475 4750 60  0001 C CNN
F 3 "" H 9475 4750 60  0000 C CNN
	1    9475 4750
	1    0    0    -1  
$EndComp
$Comp
L GND #PWR05
U 1 1 57E82BFA
P 8100 3450
F 0 "#PWR05" H 8100 3200 50  0001 C CNN
F 1 "GND" H 8100 3300 50  0000 C CNN
F 2 "" H 8100 3450 50  0000 C CNN
F 3 "" H 8100 3450 50  0000 C CNN
	1    8100 3450
	-1   0    0    1   
$EndComp
Text GLabel 7450 4800 0    60   Input ~ 0
SPI_MISO
Text GLabel 7450 4425 0    60   Input ~ 0
SPI_MOSI
Text GLabel 7450 4175 0    60   Input ~ 0
TFT_CS
Text GLabel 7450 4550 0    60   Input ~ 0
SPI_CLK
Text GLabel 7450 4300 0    60   Input ~ 0
TFT_D/C
Text GLabel 7450 4675 0    60   Input ~ 0
TFT_LED
Text GLabel 7425 5250 0    60   Input ~ 0
TOUCH_CS
Text GLabel 7425 5400 0    60   Input ~ 0
TOUCH_IRQ
$Comp
L +3V3 #PWR06
U 1 1 57E83FB4
P 8300 3450
F 0 "#PWR06" H 8300 3300 50  0001 C CNN
F 1 "+3V3" H 8300 3590 50  0000 C CNN
F 2 "" H 8300 3450 50  0000 C CNN
F 3 "" H 8300 3450 50  0000 C CNN
	1    8300 3450
	1    0    0    -1  
$EndComp
Text GLabel 3000 1350 2    60   Input ~ 0
TFT_LED
Text GLabel 5875 2725 2    60   Input ~ 0
SPI_MISO
Text GLabel 5875 2850 2    60   Input ~ 0
SPI_MOSI
Text GLabel 5875 2975 2    60   Input ~ 0
TFT_CS
Text GLabel 5875 2600 2    60   Input ~ 0
SPI_CLK
Text GLabel 5875 2275 2    60   Input ~ 0
TFT_D/C
Text GLabel 5875 2150 2    60   Input ~ 0
TOUCH_CS
Text GLabel 5875 2025 2    60   Input ~ 0
TOUCH_IRQ
Text Notes 2475 4550 0    197  ~ 0
MCU
Text Notes 9250 3300 0    197  ~ 0
TFT
Wire Wire Line
	5425 2475 5425 3675
Wire Wire Line
	5425 3375 5075 3375
Wire Wire Line
	5625 3275 5625 3675
Wire Wire Line
	5075 3275 5625 3275
Wire Wire Line
	1800 3275 2775 3275
Wire Wire Line
	1800 2425 1800 3500
Wire Wire Line
	1100 1000 1100 2975
Wire Wire Line
	8325 4300 7950 4300
Wire Wire Line
	7950 4300 7950 4175
Wire Wire Line
	7950 4175 7450 4175
Wire Wire Line
	8325 4500 7875 4500
Wire Wire Line
	7875 4500 7875 4300
Wire Wire Line
	7875 4300 7450 4300
Wire Wire Line
	8325 4600 7800 4600
Wire Wire Line
	7800 4425 7800 5200
Wire Wire Line
	7800 4425 7450 4425
Wire Wire Line
	8325 4700 7700 4700
Wire Wire Line
	7700 4550 7700 5000
Wire Wire Line
	7700 4550 7450 4550
Wire Wire Line
	8325 4800 7625 4800
Wire Wire Line
	7625 4800 7625 4675
Wire Wire Line
	7625 4675 7450 4675
Wire Wire Line
	7550 4800 7550 5300
Wire Wire Line
	7700 5000 8325 5000
Connection ~ 7700 4700
Wire Wire Line
	7425 5400 8325 5400
Wire Wire Line
	7800 5200 8325 5200
Connection ~ 7800 4600
Wire Wire Line
	7450 4800 7550 4800
Wire Wire Line
	8300 4100 8325 4100
Wire Wire Line
	8300 3450 8300 4400
Wire Wire Line
	8300 4400 8325 4400
Wire Wire Line
	5875 2975 5075 2975
Wire Wire Line
	5875 2275 5075 2275
Wire Wire Line
	5875 2850 5700 2850
Wire Wire Line
	5700 2850 5700 2875
Wire Wire Line
	5700 2875 5075 2875
Wire Wire Line
	5875 2725 5625 2725
Wire Wire Line
	5625 2725 5625 2775
Wire Wire Line
	5625 2775 5075 2775
Wire Wire Line
	5875 2600 5550 2600
Wire Wire Line
	5550 2600 5550 2675
Wire Wire Line
	5550 2675 5075 2675
Wire Wire Line
	5875 2150 5650 2150
Wire Wire Line
	5650 2150 5650 2175
Wire Wire Line
	5650 2175 5075 2175
Wire Wire Line
	5875 2025 5525 2025
Wire Wire Line
	5525 2025 5525 2075
Wire Wire Line
	5525 2075 5075 2075
Wire Wire Line
	8325 5100 7475 5100
Wire Wire Line
	7475 5100 7475 5250
Wire Wire Line
	7475 5250 7425 5250
Wire Notes Line
	6750 925  6750 4325
Wire Notes Line
	5225 4325 5225 7125
Wire Wire Line
	1800 2875 2775 2875
Wire Wire Line
	2200 2625 2200 2875
Wire Wire Line
	5075 2575 5275 2575
Wire Wire Line
	5275 2575 5275 3275
Connection ~ 5275 3275
Wire Wire Line
	5075 2475 5425 2475
Connection ~ 5425 3375
NoConn ~ 2775 3375
NoConn ~ 2775 3175
NoConn ~ 2775 3075
NoConn ~ 2775 2775
NoConn ~ 2775 2675
NoConn ~ 2775 2575
NoConn ~ 2775 2175
NoConn ~ 2775 2075
Connection ~ 1100 1350
Wire Wire Line
	7550 4900 8325 4900
Wire Wire Line
	8325 4200 8100 4200
Wire Wire Line
	8100 4200 8100 3450
NoConn ~ 10600 4600
NoConn ~ 10600 4700
NoConn ~ 10600 4800
NoConn ~ 10600 4900
Connection ~ 8300 4100
Wire Wire Line
	7550 5300 8325 5300
Connection ~ 7550 4900
NoConn ~ 2775 2375
NoConn ~ 5075 1975
NoConn ~ 5075 2375
NoConn ~ 5075 3075
NoConn ~ 5075 3175
Wire Wire Line
	1100 2975 2775 2975
$Comp
L Q_PMOS_GSD Q1
U 1 1 57E95433
P 2425 1450
F 0 "Q1" V 2375 1650 50  0000 R CNN
F 1 "SI2305" V 2625 1575 50  0000 R CNN
F 2 "TO_SOT_Packages_SMD:SOT-23" H 2625 1550 50  0001 C CNN
F 3 "" H 2425 1450 50  0000 C CNN
	1    2425 1450
	0    1    -1   0   
$EndComp
$Comp
L R_Small R4
U 1 1 57E955B6
P 2150 1550
F 0 "R4" H 2180 1570 50  0000 L CNN
F 1 "10k" H 2180 1510 50  0000 L CNN
F 2 "Resistors_ThroughHole:Resistor_Vertical_RM5mm" H 2150 1550 50  0001 C CNN
F 3 "" H 2150 1550 50  0000 C CNN
	1    2150 1550
	1    0    0    -1  
$EndComp
Wire Wire Line
	1100 1350 2225 1350
Wire Wire Line
	2150 1350 2150 1450
Wire Wire Line
	2150 1650 2150 1750
Wire Wire Line
	2150 1750 2700 1750
Wire Wire Line
	2425 1750 2425 1650
Wire Wire Line
	2625 1350 3000 1350
Connection ~ 2150 1350
$Comp
L R_Small R3
U 1 1 57E95AED
P 1800 2325
F 0 "R3" H 1830 2345 50  0000 L CNN
F 1 "22k" H 1830 2285 50  0000 L CNN
F 2 "Resistors_ThroughHole:Resistor_Vertical_RM5mm" H 1800 2325 50  0001 C CNN
F 3 "" H 1800 2325 50  0000 C CNN
	1    1800 2325
	1    0    0    -1  
$EndComp
$Comp
L R_Small R1
U 1 1 57E95B40
P 1325 1975
F 0 "R1" V 1250 1925 50  0000 L CNN
F 1 "47k" V 1400 1900 50  0000 L CNN
F 2 "Resistors_ThroughHole:Resistor_Vertical_RM5mm" H 1325 1975 50  0001 C CNN
F 3 "" H 1325 1975 50  0000 C CNN
	1    1325 1975
	0    1    1    0   
$EndComp
$Comp
L R_Small R2
U 1 1 57E95B84
P 1575 1975
F 0 "R2" V 1500 1925 50  0000 L CNN
F 1 "22k" V 1650 1900 50  0000 L CNN
F 2 "Resistors_ThroughHole:Resistor_Vertical_RM5mm" H 1575 1975 50  0001 C CNN
F 3 "" H 1575 1975 50  0000 C CNN
	1    1575 1975
	0    1    1    0   
$EndComp
Wire Wire Line
	1800 2225 1800 1975
Wire Wire Line
	1675 1975 2775 1975
Wire Wire Line
	1475 1975 1425 1975
Wire Notes Line
	6750 4325 5225 4325
Wire Wire Line
	1225 1975 1100 1975
Connection ~ 1100 1975
$Comp
L Photores R5
U 1 1 57E95EDA
P 2200 2375
F 0 "R5" H 2150 2150 50  0000 C CNN
F 1 "60" H 2100 2400 50  0000 C TNN
F 2 "Resistors_ThroughHole:Resistor_Vertical_RM5mm" V 2130 2375 50  0001 C CNN
F 3 "" H 2200 2375 50  0000 C CNN
	1    2200 2375
	-1   0    0    1   
$EndComp
Wire Wire Line
	2200 1975 2200 2125
Connection ~ 1800 1975
Connection ~ 2200 2875
Connection ~ 2200 1975
Connection ~ 1800 3275
NoConn ~ 2775 2475
Connection ~ 1800 2875
Connection ~ 2425 1750
Wire Wire Line
	2775 2275 2700 2275
Wire Wire Line
	2700 2275 2700 1750
$EndSCHEMATC
