M48
;DRILL file {KiCad 4.0.2-stable} date Söndag 09 Oktober 2016 20:56:44
;FORMAT={-:-/ absolute / inch / decimal}
FMAT,2
INCH,TZ
T1C0.016
T2C0.039
T3C0.039
T4C0.040
T5C0.118
%
G90
G05
M72
T1
X3.73Y-4.1
X3.73Y-4.37
X4.02Y-3.61
X4.16Y-4.76
X4.24Y-4.4
X4.38Y-4.4
X4.57Y-4.01
X4.58Y-4.5
T2
X3.5658Y-3.61
X3.5658Y-3.71
X3.5658Y-3.81
X3.5658Y-3.91
X3.5658Y-4.01
X3.5658Y-4.11
X3.5658Y-4.21
X3.5658Y-4.31
X3.5658Y-4.41
X3.5658Y-4.51
X3.5658Y-4.61
X3.5658Y-4.71
X3.5658Y-4.81
X3.5658Y-4.91
X6.7658Y-4.11
X6.7658Y-4.21
X6.7658Y-4.31
X6.7658Y-4.41
T3
X7.0216Y-3.76
X7.0216Y-4.02
X7.0216Y-4.26
X7.0216Y-4.5
X7.0216Y-4.74
X7.2185Y-3.76
X7.2185Y-4.02
X7.2185Y-4.26
X7.2185Y-4.5
X7.2185Y-4.74
T4
X4.76Y-3.55
X4.76Y-3.65
X4.76Y-3.75
X4.76Y-3.85
X4.76Y-3.95
X4.76Y-4.05
X4.76Y-4.15
X4.76Y-4.25
X4.76Y-4.35
X4.76Y-4.45
X4.76Y-4.55
X4.76Y-4.65
X4.76Y-4.75
X4.76Y-4.85
X4.76Y-4.95
X5.66Y-3.55
X5.66Y-3.65
X5.66Y-3.75
X5.66Y-3.85
X5.66Y-3.95
X5.66Y-4.05
X5.66Y-4.15
X5.66Y-4.25
X5.66Y-4.35
X5.66Y-4.45
X5.66Y-4.55
X5.66Y-4.65
X5.66Y-4.75
X5.66Y-4.85
X5.66Y-4.95
T5
X3.7595Y-3.3939
X3.7595Y-5.1261
X6.7548Y-3.3939
X6.7548Y-5.1261
T0
M30
